{
  "photos": {
    "page": 1,
    "pages": 22285,
    "perpage": 20,
    "total": 445683,
    "photo": [
      {
        "id": "51635469489",
        "owner": "12639178@N07",
        "secret": "d89175352e",
        "server": "65535",
        "farm": 66,
        "title": "Ockergelber Blattspanner an der Terrassenlampe",
        "ispublic": 1,
        "isfriend": 0,
        "isfamily": 0
      },
      {
        "id": "51635469389",
        "owner": "193628324@N02",
        "secret": "a55a96d5dc",
        "server": "65535",
        "farm": 66,
        "title": "bwrgrid-3-2021-10-28T03-39-17_69b7a903-be39-4ad0-ab32-9711a47314dd",
        "ispublic": 1,
        "isfriend": 0,
        "isfamily": 0
      },
      {
        "id": "51635673925",
        "owner": "40129895@N03",
        "secret": "1222f72201",
        "server": "65535",
        "farm": 66,
        "title": "ban nha, nguyen truong to, 2.jpg",
        "ispublic": 1,
        "isfriend": 0,
        "isfamily": 0
      },
      {
        "id": "51635040243",
        "owner": "193628324@N02",
        "secret": "c5318b646d",
        "server": "65535",
        "farm": 66,
        "title": "bwrgrid-2-2021-10-28T03-37-57_8e8264ec-ea57-4203-b13a-4a77a7927e3f",
        "ispublic": 1,
        "isfriend": 0,
        "isfamily": 0
      },
      {
        "id": "51635469319",
        "owner": "143369126@N04",
        "secret": "69a46ed650",
        "server": "65535",
        "farm": 66,
        "title": "khang nói Công Thức Đường Tròn Nội Tiếp, Đường Tròn Ngoài Tiếp Của Tam Giác",
        "ispublic": 1,
        "isfriend": 0,
        "isfamily": 0
      },
      {
        "id": "51635673810",
        "owner": "193628324@N02",
        "secret": "a9f3ffbfcd",
        "server": "65535",
        "farm": 66,
        "title": "bwrgrid-2-2021-10-28T09-40-59_1ab62d90-d41e-4810-9a15-c818842130cc",
        "ispublic": 1,
        "isfriend": 0,
        "isfamily": 0
      },
      {
        "id": "51635469179",
        "owner": "193628324@N02",
        "secret": "47a253571a",
        "server": "65535",
        "farm": 66,
        "title": "bwrgrid-2-2021-10-28T03-37-57_81c8f5f2-504f-46f2-b3cd-e50e3ca1b188",
        "ispublic": 1,
        "isfriend": 0,
        "isfamily": 0
      },
      {
        "id": "51634824671",
        "owner": "56339362@N03",
        "secret": "0f6afe6f91",
        "server": "65535",
        "farm": 66,
        "title": "Playa Cativo.",
        "ispublic": 1,
        "isfriend": 0,
        "isfamily": 0
      },
      {
        "id": "51634824666",
        "owner": "194080964@N04",
        "secret": "2d6e50443d",
        "server": "65535",
        "farm": 66,
        "title": "",
        "ispublic": 1,
        "isfriend": 0,
        "isfamily": 0
      },
      {
        "id": "51634824656",
        "owner": "63018044@N02",
        "secret": "802f05324b",
        "server": "65535",
        "farm": 66,
        "title": "Nisse",
        "ispublic": 1,
        "isfriend": 0,
        "isfamily": 0
      },
      {
        "id": "51635673755",
        "owner": "193628324@N02",
        "secret": "5e608a9ece",
        "server": "65535",
        "farm": 66,
        "title": "bwrgrid-3-2021-10-28T03-39-17_67650f5e-9cd6-4ca5-a2d8-85ce2b26422f",
        "ispublic": 1,
        "isfriend": 0,
        "isfamily": 0
      },
      {
        "id": "51633994252",
        "owner": "40129895@N03",
        "secret": "d8b36e2b61",
        "server": "65535",
        "farm": 66,
        "title": "4.jpg",
        "ispublic": 1,
        "isfriend": 0,
        "isfamily": 0
      },
      {
        "id": "51633994202",
        "owner": "43865627@N03",
        "secret": "fe269bda7f",
        "server": "65535",
        "farm": 66,
        "title": "HAV01109.jpg",
        "ispublic": 1,
        "isfriend": 0,
        "isfamily": 0
      },
      {
        "id": "51633994167",
        "owner": "194080964@N04",
        "secret": "c4aa9c9bbf",
        "server": "65535",
        "farm": 66,
        "title": "",
        "ispublic": 1,
        "isfriend": 0,
        "isfamily": 0
      },
      {
        "id": "51635040138",
        "owner": "194080964@N04",
        "secret": "34b05ec78c",
        "server": "65535",
        "farm": 66,
        "title": "",
        "ispublic": 1,
        "isfriend": 0,
        "isfamily": 0
      },
      {
        "id": "51635469129",
        "owner": "194080964@N04",
        "secret": "b71dd31f82",
        "server": "65535",
        "farm": 66,
        "title": "",
        "ispublic": 1,
        "isfriend": 0,
        "isfamily": 0
      },
      {
        "id": "51633994112",
        "owner": "40129895@N03",
        "secret": "6ffb075be4",
        "server": "65535",
        "farm": 66,
        "title": "ban nha, nguyen truong to, 1.jpg",
        "ispublic": 1,
        "isfriend": 0,
        "isfamily": 0
      }
    ]
  },
  "stat": "ok"
}